<?xml version="1.0" encoding="UTF-8" standalone="no"?>
<!-- Created with Inkscape (http://www.inkscape.org/) -->

<svg
   version="1.1"
   id="svg3305"
   width="800"
   height="800"
   viewBox="0 0 800 800"
   xmlns="http://www.w3.org/2000/svg"
   xmlns:svg="http://www.w3.org/2000/svg">
  <defs
     id="defs3309" />
  <g
     id="g3311">
    <path
       style="fill:#acaaab;stroke:none;stroke-width:1.06683"
       d="M 1.491068,800 H 381.48791 v -1.07223 C 324.3971,796.44554 269.57354,748.17454 246.60389,698.13758 c -6.09693,-13.28071 -17.56477,-39.41433 -13.52703,-54.36128 1.63143,-6.03885 14.05669,-10.90036 18.91492,-14.28862 13.48989,-9.40888 28.61016,-21.08661 37.35964,-35.35698 7.06496,-11.52333 8.26864,-26.5668 9.52433,-39.67273 2.41691,-25.2265 0.881,-49.83431 0.881,-75.05653 h 1.06144 c 19.12934,60.4323 61.32491,114.67243 126.3118,126.17967 20.1876,3.57483 41.4377,2.75135 61.56373,-0.81813 8.54887,-1.51614 22.35295,-8.36986 30.78187,-6.44627 5.78487,1.31885 10.70147,8.9671 14.86021,12.87433 10.83203,10.17445 29.61959,16.40628 38.61745,27.55539 3.04422,3.77106 -0.18257,10.3267 -1.31832,14.35724 -3.82332,13.56914 -8.76858,26.87668 -14.61183,39.67273 -23.24031,50.89262 -70.21662,101.31557 -128.83167,106.15137 V 800 h 371.50529 c 0,-9.381 2.24071,-22.13739 -0.59759,-31.09485 -2.56445,-8.09216 -10.58896,-15.39944 -16.02992,-21.62699 -19.88615,-22.75822 -46.50397,-37.18193 -73.5952,-49.29069 -14.40804,-6.43984 -28.8925,-12.64917 -43.51919,-18.55933 -4.50583,-1.82065 -13.34978,-3.60378 -14.42821,-9.21587 -2.20249,-11.46863 1.68664,-25.7594 1.69088,-37.48107 0.0127,-32.22606 0.37575,-64.23981 -0.004,-96.50125 -0.43307,-36.80021 -3.78086,-73.73659 -6.26995,-110.4403 C 640.75402,334.4791 634.72184,244.91631 600.6219,158.8029 584.38924,117.81024 561.57563,76.53023 529.0445,46.404256 495.92534,15.734661 454.31887,-1.8466845 409.08545,0.15421502 393.38033,0.84891671 378.79397,5.8166932 363.44337,8.1768988 350.06069,10.234627 336.83404,7.1836867 323.10851,10.463764 c -37.37556,8.931619 -66.73827,38.877238 -87.54894,70.065906 -61.85244,92.69373 -78.18382,208.55312 -85.56191,317.38185 -2.19507,32.38045 -5.15968,65.09865 -5.21169,97.57347 -0.0669,41.82577 0,83.64619 0,125.4516 0,14.69393 5.52588,35.21008 1.78535,49.26389 -1.51574,5.69357 -10.8055,7.70508 -15.58412,9.6973 -15.53529,6.47523 -31.163988,12.7135 -46.703525,19.163 -23.246359,9.64905 -44.278866,19.62299 -63.68662,36.16544 C 14.717293,740.23785 4.7718843,747.60304 2.0897222,755.14836 -2.2330072,767.3086 1.491068,787.06669 1.491068,800 M 560.87189,362.52773 h 2.12289 c 6.40263,-20.98581 12.64498,-37.55828 11.63448,-60.04522 -0.70161,-15.5946 -9.16768,-25.99314 -4.20437,-41.8172 10.20472,6.08816 12.61525,17.82485 13.85184,28.95038 2.47316,22.23602 -3.87427,44.15252 -9.91495,65.40639 -2.44875,8.61649 -4.4708,18.39313 -9.92025,25.69077 -8.26865,11.07083 -17.44377,5.71824 -20.55274,-5.31829 h -1.06144 c -1.87132,21.67954 -14.48977,45.73623 -25.02778,64.33415 -25.47996,44.9728 -73.4657,98.95452 -131.00444,88.49807 -18.91493,-3.43866 -37.76511,-13.17993 -53.05626,-24.68716 -25.14454,-18.92282 -46.47107,-45.8917 -60.00235,-74.53327 -4.61198,-9.7627 -9.28445,-19.75701 -12.70548,-30.0226 -2.12395,-6.37444 -3.05059,-14.56633 -7.97781,-19.30025 -1.68452,7.99566 -9.95847,8.83844 -15.72529,3.83968 -5.69252,-4.93443 -8.35569,-13.94444 -10.35757,-20.99545 -6.75609,-23.81008 -15.38032,-50.09808 -11.81068,-75.05652 2.05283,-14.34974 11.13985,-37.72876 24.38667,-18.23016 1.65479,2.43612 2.92321,4.76181 3.95387,7.5078 h 2.12289 c 13.48352,-52.64679 21.89546,-100.39131 61.56373,-140.46291 7.78357,-7.8627 20.82977,-25.10212 31.84331,-27.87171 5.03549,-1.2663 9.64853,5.48235 12.73308,8.55537 10.05612,10.02006 21.19491,19.19946 32.909,27.17582 25.33242,17.25014 53.02867,29.29779 80.66972,42.13459 25.70392,11.93721 52.28035,25.36374 68.61278,49.72388 13.95905,20.8196 14.52692,41.21138 20.0528,64.33416 1.86495,7.80265 8.22725,13.01801 8.88853,21.44471 1.18775,15.15391 -6.979,24.96058 -2.02418,40.74497 m -321.61743,0 c 2.65361,-14.22857 -1.34379,-21.87576 -2.98797,-35.38379 -1.38306,-11.36998 7.85363,-17.4174 9.16026,-27.87813 0.61882,-4.96124 -1.53697,-34.28904 -11.81493,-25.22114 -4.55784,4.01982 -6.11285,12.01119 -7.30273,17.71548 -3.44757,16.5328 -2.7035,35.32374 2.36171,51.46733 1.883,6.00344 4.22349,17.10002 10.58366,19.30025 z"
       id="path3315" />
  </g>
</svg>
