<?xml version="1.0" encoding="UTF-8" standalone="no"?>
<!-- Created with Inkscape (http://www.inkscape.org/) -->

<svg
   version="1.1"
   id="svg2"
   width="1296.96"
   height="1296.955"
   viewBox="0 0 1296.96 1296.955"
   sodipodi:docname="avatar_sample__men.svg"
   xmlns:inkscape="http://www.inkscape.org/namespaces/inkscape"
   xmlns:sodipodi="http://sodipodi.sourceforge.net/DTD/sodipodi-0.dtd"
   xmlns="http://www.w3.org/2000/svg"
   xmlns:svg="http://www.w3.org/2000/svg">
  <defs
     id="defs6" />
  <sodipodi:namedview
     id="namedview4"
     pagecolor="#ffffff"
     bordercolor="#000000"
     borderopacity="0.25"
     inkscape:showpageshadow="2"
     inkscape:pageopacity="0.0"
     inkscape:pagecheckerboard="0"
     inkscape:deskcolor="#d1d1d1"
     showgrid="false" />
  <g
     inkscape:groupmode="layer"
     inkscape:label="Image"
     id="g8">
    <path
       style="fill:#000000;stroke:#ffffff;stroke-width:0.96"
       d="M 0.47999999,648.48112 V 0.47999999 H 648.48 h 648 V 648.47747 1296.4749 H 648.48 0.47999999 V 648.47383 Z M 117.5988,1257.4732 c 38.242,-245.3978 47.3351,-303.06213 48.5086,-307.62233 2.4672,-9.5866 9.9434,-30.43259 14.8262,-41.33986 5.7345,-12.80997 12.3175,-23.63848 18.2307,-29.98836 10.0096,-10.74871 32.0105,-25.20785 58.6797,-38.56469 39.8785,-19.97254 83.4909,-36.01732 173.676,-63.89454 25.608,-7.9157 50.88,-15.88549 56.16,-17.71063 5.28,-1.82515 10.316,-3.31717 11.191,-3.31562 1.1843,0.002 2.4619,2.76304 4.9988,10.80283 12.488,39.57571 40.3571,70.79131 80.7235,90.41646 74.7821,36.35727 164.7241,20.65698 213.3643,-37.24492 12.8425,-15.28794 24.6467,-35.52269 31.0091,-53.15606 1.1876,-3.29149 2.7255,-6.45445 3.4176,-7.02879 0.9475,-0.78641 4.6507,0.61323 14.997,5.66834 17.1046,8.35714 43.5795,18.85795 94.8587,37.6241 81.5865,29.85739 123.0092,47.76937 153.7775,66.49629 39.47,24.02318 61.7171,53.85233 73.7269,98.85395 6.1197,22.9311 7.682,34.86443 23.5309,179.73053 8.7225,79.7281 16.0217,145.6081 16.2205,146.4001 1.4702,5.8572 -1.2709,-21.0027 -14.7767,-144.7995 -8.4483,-77.4403 -16.4605,-146.8486 -17.8046,-154.24054 -8.2963,-45.62429 -21.525,-74.9446 -44.5538,-98.74942 -29.4519,-30.44452 -72.5452,-51.90139 -192.0407,-95.62051 -51.3975,-18.80453 -72.8634,-27.31332 -91.0865,-36.10551 -8.1217,-3.91849 -15.418,-7.12452 -16.2142,-7.12452 -0.7962,0 -1.9489,0.68557 -2.5616,1.52349 -0.9799,1.34009 -1.686,1.07127 -5.8658,-2.23317 -6.0018,-4.74481 -10.9919,-9.71508 -10.9919,-10.94821 0,-0.52262 -1.0573,-2.33645 -2.3496,-4.03074 -4.9298,-6.46331 -8.0849,-15.10574 -9.6931,-26.55137 -2.149,-15.29388 -2.9533,-66.09801 -1.4382,-90.84281 1.1404,-18.62624 1.2191,-19.07826 4.4321,-25.45841 4.5997,-9.13379 10.1547,-23.36673 14.2765,-36.57878 1.9355,-6.204 3.7052,-11.28 3.9328,-11.28 0.2276,0 1.0335,1.48331 1.791,3.29624 2.5328,6.06168 10.6195,8.07176 17.779,4.41925 8.608,-4.39151 14.8964,-16.878 28.0592,-55.71549 7.6881,-22.68428 9.4088,-30.14037 10.0805,-43.68 0.9484,-19.11921 -3.3312,-35.02568 -11.38,-42.29732 l -3.7575,-3.39467 1.0137,-14.43037 c 2.2143,-31.52296 0.091,-114.45836 -3.339,-130.43764 -6.1724,-28.75284 -21.5073,-54.55216 -44.0524,-74.11357 -41.6784,-36.16248 -111.9917,-57.28228 -175.6646,-52.76384 -46.4832,3.2986 -80.808,13.50466 -109.5189,32.56417 -11.4114,7.57535 -28.378,24.13285 -35.653,34.79324 -29.8483,43.73802 -38.2349,104.31772 -26.1496,188.88727 l 1.956,13.68727 -4.2556,4.73321 c -6.4882,7.21645 -9.488,17.09988 -10.0685,33.17225 -0.6325,17.51461 1.0047,25.69405 11.3119,56.51325 11.8527,35.44017 17.7349,46.84603 26.2407,50.88232 4.0908,1.9412 9.4451,2.00756 13.0153,0.16131 2.8652,-1.48162 5.8313,-7.37005 5.8313,-11.57631 0,-4.45995 1.7285,-2.39547 3.8342,4.57943 3.187,10.55677 8.3472,24.02862 13.6975,35.76 2.6489,5.808 5.1741,12.504 5.6116,14.88 2.6315,14.28992 5.2362,43.32597 6.2005,69.12 0.7309,19.55001 -0.5113,35.21503 -3.4846,43.94451 -2.3738,6.96949 -9.1135,17.64018 -15.829,25.06155 -4.6695,5.16028 -20.9403,18.35394 -22.6346,18.35394 -0.4927,0 -1.1445,-0.648 -1.4484,-1.44 -0.8493,-2.21331 -3.9767,-1.76385 -16.3285,2.34671 -6.2583,2.08269 -29.7387,9.4498 -52.1787,16.37135 -87.4401,26.97065 -131.2722,42.87981 -170.6521,61.93938 -41.1931,19.93715 -64.3531,37.20203 -74.6279,55.63231 -8.8868,15.94048 -18.6048,40.03425 -23.0203,57.07442 -1.2337,4.761 -54.2597,341.90253 -54.2597,344.98553 0,0.5556 0.2371,0.7732 0.5269,0.4835 0.2897,-0.2897 3.0761,-16.8857 6.1919,-36.88 z M 755.04,744.96868 C 696.3282,737.84464 635.8193,709.73494 589.92,668.26132 575.3405,655.08757 559.2787,635.76972 551.9217,622.56 c -2.2479,-4.0362 -2.2613,-4.13509 -0.2038,-1.50546 1.2112,1.54799 5.4275,7.16399 9.3696,12.48 9.1873,12.38936 26.8918,30.0392 37.9525,37.8354 10.4495,7.36531 22.9322,13.54463 34.56,17.10815 8.2401,2.5253 9.5732,2.6495 28.8,2.68305 17.2631,0.0301 21.7089,-0.27853 30.9387,-2.14789 40.9795,-8.29984 73.3834,-30.46311 97.4689,-66.66572 3.7661,-5.66086 6.9931,-10.14686 7.1711,-9.9689 0.1779,0.17797 -0.1786,9.34557 -0.7924,20.37247 -1.8998,34.13212 0.2592,81.2327 4.3515,94.9289 0.7888,2.64 2.9615,7.33634 4.8282,10.4363 1.8667,3.09998 3.394,5.95581 3.394,6.34629 0,2.18581 -37.9817,2.53709 -54.72,0.50609 z M 504.7,440.17091 c -1.199,-1.51958 -2.7725,-4.44246 -3.4968,-6.49529 -2.0244,-5.73782 -5.9417,-13.07502 -8.7843,-16.45325 -3.4568,-4.10809 -7.1418,-5.86237 -12.3145,-5.86237 -2.3711,0 -4.5411,-0.37217 -4.8222,-0.82705 -0.8557,-1.38456 -5.2475,-36.26245 -6.2965,-50.00484 -1.276,-16.71558 -1.2618,-46.77975 0.028,-60.12138 4.4748,-46.27021 18.3138,-80.43043 43.0359,-106.22979 30.1047,-31.41652 71.6947,-47.63482 132.43,-51.64193 49.3766,-3.25769 106.6566,9.63603 146.2028,32.91024 27.695,16.29938 49.6193,39.01448 61.2234,63.43188 8.1738,17.19934 11.274,31.14491 12.7343,57.28287 1.2955,23.18707 1.4456,100.23871 0.2142,109.92 l -0.8548,6.72 -5.1316,0.6263 c -3.5992,0.43928 -6.1592,1.45796 -8.5726,3.41124 -3.8403,3.10823 -8.9828,11.71181 -11.3581,19.00246 -1.7729,5.44152 -3.7643,8.07505 -5.0503,6.67885 -0.4655,-0.50537 -3.5216,-12.58285 -6.7913,-26.83885 -7.2703,-31.69916 -20.4947,-84.26359 -22.3323,-88.76718 l -1.3473,-3.30181 -19.6282,-3.60127 C 752.0414,314.18511 679.65,302.22955 654.2395,298.61463 c -38.3522,-5.45603 -65.5431,-8.2768 -85.44,-8.8635 -23.1335,-0.68214 -25.7703,-0.14652 -29.3501,5.96197 -3.7247,6.35573 -8.7594,19.69267 -11.9468,31.6469 -5.3932,20.22744 -13.5689,71.5667 -15.3322,96.27803 -1.4152,19.83475 -2.6717,22.61521 -7.4709,16.53288 z m 5.6297,-12.57946 c 2.1807,-26.81791 8.0011,-66.55982 13.4316,-91.71157 3.6747,-17.01975 13.2564,-41.86473 17.4826,-45.33206 6.4714,-5.30935 46.046,-2.99781 113.4761,6.62809 54.4612,7.77454 149.2142,24.26998 150.4254,26.18742 1.8622,2.94775 13.5194,49.03012 26.3435,104.13924 1.5131,6.50242 3.1104,11.90242 3.5495,12 0.4391,0.0976 2.0652,-3.06257 3.6134,-7.02257 5.0173,-12.83266 11.9976,-20.14896 19.2307,-20.15641 6.1615,-0.007 6.0159,0.94863 6.4202,-42.11283 0.414,-44.09384 -0.9347,-85.7051 -3.1934,-98.52656 C 848.9754,202.80606 779.5542,153.19216 683.04,144.42181 c -15.4598,-1.40484 -45.4158,-0.68555 -61.0853,1.46677 -92.496,12.70501 -140.8631,60.60457 -151.2536,149.79142 -1.5381,13.20256 -1.5319,55.4832 0.01,71.04 1.8044,18.2002 5.0946,41.17566 6.069,42.3809 0.4896,0.60549 1.7512,0.87573 2.8035,0.60053 3.1405,-0.82127 10.1407,2.4725 13.7534,6.47141 3.6787,4.07184 6.0709,8.39193 8.7641,15.82716 1.9491,5.38092 5.1906,9.57192 6.4384,8.32417 0.4517,-0.4517 1.2571,-6.18142 1.7898,-12.73272 z m -4.2026,10.01219 c -0.2693,-0.442 -1.8265,-4.25964 -3.4605,-8.48364 -5.245,-13.55946 -12.4132,-20.64 -20.8953,-20.64 -4.761,0 -4.2928,1.34768 -7.0029,-20.16 -3.2239,-25.58551 -4.1713,-43.26081 -3.6021,-67.2 0.958,-40.28813 6.7019,-66.34746 20.6228,-93.5625 20.1618,-39.41615 56.7749,-65.27073 107.9509,-76.23018 21.5662,-4.61847 29.7458,-5.36121 59.3,-5.38476 29.5702,-0.0235 34.8894,0.43271 57.0808,4.89624 55.6482,11.19291 101.3568,38.55462 124.8909,74.7612 14.2816,21.97174 19.027,38.46224 20.7193,72 1.2884,25.53463 1.6189,92.77723 0.5126,104.28377 l -0.7966,8.28378 -4.2536,0.47945 c -8.0066,0.90246 -15.1178,8.26413 -19.7987,20.49596 l -2.1106,5.51549 -1.1456,-4.72922 C 833.5084,429.32815 829.8691,413.808 826.0512,397.44 817.6187,361.288 808.184,325.14306 806.5252,322.63461 805.1349,320.5321 787.501,317.07036 723.36,306.30834 645.0126,293.16265 600.452,287.53176 569.0236,286.80563 c -26.5358,-0.61309 -28.222,-0.19019 -32.6554,8.18993 -8.1349,15.37653 -13.0121,32.02866 -18.3364,62.60444 -5.6681,32.55021 -7.7206,47.48843 -8.8378,64.32 -0.9013,13.57898 -1.739,17.86293 -3.0669,15.68364 z M 817.8694,305.67801 c -0.3091,-0.50013 -0.9712,-0.65643 -1.4713,-0.34733 -0.5002,0.30909 -0.6565,0.97118 -0.3474,1.47131 0.3091,0.50013 0.9712,0.65643 1.4713,0.34733 0.5002,-0.30909 0.6565,-0.97118 0.3474,-1.47131 z M 115.0941,1291.92 c 0.2897,-1.452 12.2266,-77.808 26.5265,-169.6801 14.3,-91.872 26.8862,-170.27993 27.9696,-174.23993 5.6893,-20.7968 17.2045,-47.51944 25.8926,-60.08716 19.4877,-28.19004 87.7413,-61.98973 192.3572,-95.25673 10.032,-3.19009 35.736,-11.21026 57.12,-17.82261 21.384,-6.61234 42.085,-13.122 46.0021,-14.46589 3.9171,-1.3439 7.1964,-2.33637 7.2873,-2.20552 0.091,0.13087 0.7248,2.39794 1.4088,5.03794 8.6971,33.56899 33.9685,66.31321 66.9817,86.78866 41.3577,25.65086 93.2724,34.82781 141.3601,24.98817 20.3086,-4.1555 43.1224,-13.75808 60.96,-25.65874 12.1375,-8.09771 32.0717,-27.78041 41.0358,-40.51809 7.2103,-10.24557 16.1668,-27.10446 20.9319,-39.40005 l 3.1778,-8.20005 11.1073,5.47201 c 19.5521,9.63237 38.5883,17.126 109.5072,43.10767 153.3194,56.16965 190.7783,83.8422 211.6497,156.35489 6.5182,22.6462 8.5427,37.91433 24.5818,185.38543 8.5277,78.4081 15.6722,142.7401 15.8767,142.9601 0.2045,0.22 0.5581,0.2137 0.7858,-0.014 0.7274,-0.7275 -30.9894,-287.936 -33.066,-299.42594 -10.0841,-55.79589 -28.2807,-88.63078 -63.828,-115.17454 -16.0602,-11.99243 -51.4802,-30.40723 -86.8164,-45.13574 -17.633,-7.34922 -55.2862,-21.6305 -103.7436,-39.34791 -32.6169,-11.92572 -56.5611,-21.57648 -71.872,-28.96825 -7.5857,-3.66217 -14.2026,-6.52166 -14.7044,-6.35442 -0.5017,0.16724 -2.527,4.40961 -4.5007,9.42747 -23.1555,58.86995 -71.6351,97.35424 -133.5114,105.98448 -12.291,1.71429 -37.1014,1.95903 -49.0366,0.48369 -30.393,-3.75692 -59.0279,-14.1555 -83.0149,-30.14632 -30.5638,-20.37523 -50.924,-46.79452 -60.9616,-79.10351 -1.6606,-5.34512 -3.339,-9.91596 -3.7296,-10.15741 -0.3907,-0.24145 -3.6702,0.63539 -7.2879,1.94851 -3.6176,1.31314 -27.5662,8.86375 -53.2192,16.77916 -110.9698,34.24058 -163.904,54.73889 -204.8743,79.33582 -22.4847,13.49897 -35.4121,24.91267 -43.0795,38.03528 -8.0963,13.85661 -19.3353,42.304 -23.1968,58.714 -0.8698,3.696 -13.2423,81.67193 -27.4946,173.27993 -14.2523,91.6081 -26.0895,167.3161 -26.305,168.2401 -0.2154,0.924 -0.034,1.68 0.4021,1.68 0.4367,0 1.0309,-1.188 1.3205,-2.64 z"
       id="path843" />
    <path
       style="fill:#000000;fill-opacity:1;stroke:#808080;stroke-width:0.00390625"
       d="m 816.27315,307.62336 c -0.16099,-0.0801 -0.28292,-0.16772 -0.40802,-0.29306 -0.35875,-0.35944 -0.51612,-0.86508 -0.42554,-1.36729 0.004,-0.0246 0.009,-0.0456 0.01,-0.0465 0.003,-0.003 0.002,0.004 -0.008,0.0623 -0.0161,0.0958 -0.0198,0.14439 -0.0198,0.25753 0,0.14319 0.0114,0.24155 0.043,0.36961 0.0968,0.39276 0.36183,0.74224 0.73433,0.96841 0.0172,0.0104 0.0611,0.0344 0.0977,0.0533 0.0365,0.0189 0.0636,0.0343 0.0603,0.0344 -0.003,6e-5 -0.0412,-0.0173 -0.084,-0.0387 z"
       id="path2992" />
    <path
       style="fill:#000000;fill-opacity:1;stroke:#808080;stroke-width:0.00390625"
       d="m 816.83984,307.76526 c -0.0645,-0.002 -0.15584,-0.01 -0.19293,-0.0156 -0.0796,-0.0125 -0.19492,-0.0523 -0.3139,-0.10845 -0.0252,-0.0119 -0.0459,-0.0204 -0.046,-0.019 -3e-5,10e-4 -10e-4,7.1e-4 -0.003,-0.002 -0.002,-0.002 -0.0266,-0.018 -0.0556,-0.0347 -0.31165,-0.17884 -0.56513,-0.46366 -0.69355,-0.77927 -0.0101,-0.0247 -0.0199,-0.0455 -0.0218,-0.0462 -0.002,-7.2e-4 -0.003,-0.003 -0.002,-0.004 10e-4,-0.002 -0.004,-0.0204 -0.0111,-0.0417 -0.007,-0.0212 -0.017,-0.054 -0.022,-0.0728 -0.005,-0.0188 -0.0106,-0.0342 -0.0126,-0.0342 -0.002,0 -0.002,-0.002 -10e-4,-0.004 0.003,-0.005 -0.006,-0.0468 -0.01,-0.0468 -0.002,0 -0.002,-0.004 -8.8e-4,-0.01 10e-4,-0.005 1.5e-4,-0.01 -0.002,-0.01 -0.002,0 -0.003,-0.004 -0.002,-0.01 10e-4,-0.006 6e-5,-0.01 -0.003,-0.01 -0.003,0 -0.004,-0.002 -0.002,-0.004 0.003,-0.004 -0.006,-0.0705 -0.01,-0.0705 -10e-4,0 -0.002,-0.007 -7.6e-4,-0.0156 8.5e-4,-0.009 -2.1e-4,-0.0156 -0.002,-0.0156 -0.002,0 -0.003,-0.006 -0.002,-0.0154 10e-4,-0.008 6.9e-4,-0.0186 -9.9e-4,-0.0225 -0.004,-0.01 -0.006,-0.0646 -0.005,-0.1496 4.6e-4,-0.0397 9.4e-4,-0.0849 10e-4,-0.10025 1.3e-4,-0.0156 0.002,-0.027 0.004,-0.0258 0.002,0.001 0.003,-0.007 0.002,-0.0197 -0.001,-0.0132 -3.5e-4,-0.021 0.002,-0.0196 0.002,10e-4 0.003,-0.004 0.002,-0.0138 -8.5e-4,-0.009 1e-5,-0.0161 0.002,-0.0161 0.002,0 0.003,-0.006 0.002,-0.0137 -8.8e-4,-0.008 1e-5,-0.0137 0.002,-0.0137 0.002,0 0.003,-0.005 0.002,-0.0117 -9.5e-4,-0.006 -4.7e-4,-0.0117 10e-4,-0.0117 0.002,0 0.004,-0.008 0.005,-0.0186 0.009,-0.0604 0.0431,-0.1807 0.0753,-0.26269 0.0272,-0.0693 0.11001,-0.23103 0.12771,-0.24925 0.003,-0.003 0.0122,-0.005 0.025,-0.004 l 0.02,0.001 -0.0278,0.0469 c -0.037,0.0622 -0.0842,0.15711 -0.10804,0.21705 -0.13156,0.3307 -0.13081,0.7276 0.002,1.06414 0.0759,0.19224 0.18875,0.36175 0.34483,0.51784 0.17391,0.17391 0.36781,0.29752 0.59395,0.37864 0.10945,0.0393 0.164,0.0483 0.33309,0.0551 0.17286,0.007 0.31798,-0.003 0.45171,-0.0299 0.336,-0.0684 0.62667,-0.24892 0.84209,-0.52292 0.10277,-0.13072 0.2004,-0.30779 0.25135,-0.45589 0.0414,-0.1203 0.0515,-0.21579 0.0514,-0.48567 -1.1e-4,-0.29335 -0.0119,-0.37588 -0.0742,-0.52165 -0.0332,-0.0775 -0.10459,-0.21997 -0.12563,-0.25051 -0.004,-0.006 -0.007,-0.0114 -0.007,-0.0127 0,-0.001 0.01,-0.002 0.0215,-0.002 0.026,0 0.0205,-0.008 0.0797,0.10937 0.0915,0.18072 0.12305,0.27414 0.13774,0.40821 0.004,0.0335 0.005,0.11289 0.005,0.27734 -6e-5,0.2456 -0.002,0.28606 -0.0219,0.38281 -0.0257,0.12736 -0.10826,0.31058 -0.20926,0.46449 -0.0668,0.10185 -0.12826,0.17616 -0.2184,0.26423 -0.11448,0.11185 -0.22442,0.18971 -0.36881,0.26118 -0.16732,0.0828 -0.34222,0.13136 -0.53508,0.14848 -0.0486,0.004 -0.21849,0.008 -0.27539,0.006 z"
       id="path2994" />
    <path
       style="fill:#000000;fill-opacity:1;stroke:#808080;stroke-width:0.00390625"
       d="m 816.86328,307.78282 c -0.0495,-0.003 -0.1339,-0.0135 -0.16016,-0.0193 -0.0136,-0.003 -0.0127,-0.003 0.007,-0.002 0.1162,0.01 0.28249,0.0103 0.3991,10e-4 0.22889,-0.0174 0.45897,-0.0901 0.64776,-0.20472 0.0167,-0.0102 0.0314,-0.0175 0.0325,-0.0164 0.003,0.003 -0.0785,0.0504 -0.14219,0.0822 -0.24256,0.1211 -0.51641,0.17642 -0.78413,0.15838 z"
       id="path2996" />
    <path
       style="fill:#000000;fill-opacity:1;stroke:#808080;stroke-width:0.00390625"
       d="m 816.92569,307.76772 c 0.003,-0.005 0.0372,-0.004 0.0372,3.5e-4 0,0.002 -0.009,0.003 -0.0198,0.003 -0.0117,0 -0.0188,-0.002 -0.0174,-0.004 z"
       id="path3000" />
    <path
       style="fill:#000000;fill-opacity:1;stroke:#000000;stroke-opacity:1"
       d="m 814.9778,303.08693 5.59564,-0.19462 c 0.0489,1.0851 0.0705,2.17437 0.0705,3.26167 0,0.32926 0.021,0.6592 0,0.9878 0.0421,0.14973 -0.0551,0.27492 -0.0706,0.41409 -0.0149,0.13412 0.0221,0.27984 0,0.41311 -0.0405,0.24366 -0.16911,0.44553 -0.25588,0.67087 -0.0158,0.041 -0.0118,0.0897 -0.0347,0.12733 -0.007,0.0112 -0.0765,0.061 -0.0951,0.0974 -0.0531,0.10367 0.0145,0.13326 0.0393,0.22899 0.0301,0.11626 0.0206,0.49403 -0.0943,0.56264 -0.30693,0.18326 -0.67198,0.12735 -1.01857,0.12735 -0.20971,0 -0.43682,0.03 -0.64409,0 -0.11056,-0.016 -0.21577,-0.0602 -0.32629,-0.0765 -1.87773,-0.21019 -0.0343,0.0168 -1.24973,-0.17405 -0.48856,-0.0767 -0.96945,-0.10867 -1.45879,-0.15289 -0.17345,-0.0157 -0.6583,-0.033 -0.88115,-0.0765 -0.0851,-0.0166 -0.16541,-0.0531 -0.24987,-0.0729 -0.28286,-0.0665 -0.72279,-0.091 -0.99391,-0.2477 -0.14483,-0.0837 -0.17133,-0.75948 -0.17133,-0.87593 0,-0.97341 0.022,0.51994 -0.0801,-0.60369 -0.0241,-0.26545 -0.0122,-0.5708 0.0383,-0.83937 0.0879,-0.46796 0.29461,-0.84851 0.47818,-1.28664 0.13939,-0.33271 0.11159,-0.33504 0.1983,-0.68562 0.0534,-0.21578 0.10004,-0.39247 0.19839,-0.59398 0.0291,-0.0597 0.0825,-0.10585 0.10889,-0.16676 0.0567,-0.13089 0.0877,-0.27168 0.13894,-0.4048 0.0578,-0.15012 0.16716,-0.27937 0.22936,-0.42444 0.0169,-0.0394 0.015,-0.0851 0.0309,-0.12499 0.0181,-0.0452 0.0723,-0.0446 0.0945,-0.0637 0.007,-0.006 -0.008,-0.0233 0,-0.0269 0.0793,-0.0348 0.22637,0.0172 0.29857,0.0309 0.0227,0.004 0.0573,-0.0197 0.0694,0 0.0303,0.0492 0.0234,0.11327 0.0352,0.1699 z"
       id="path3203" />
  </g>
</svg>
